%YAML 1.1
%TAG !u! tag:unity3d.com,2011:
--- !u!21 &2100000
Material:
  serializedVersion: 6
  m_ObjectHideFlags: 0
  m_PrefabParentObject: {fileID: 0}
  m_PrefabInternal: {fileID: 0}
  m_Name: checker
  m_Shader: {fileID: 4800000, guid: 885219a599cb14fc78c6f73091d05837, type: 3}
  m_ShaderKeywords: DISTORTION_ON MASK_ON UV_SCROLL_ON _ZWRITEMODE_OFF
  m_LightmapFlags: 4
  m_EnableInstancingVariants: 0
  m_DoubleSidedGI: 0
  m_CustomRenderQueue: -1
  stringTagMap: {}
  disabledShaderPasses: []
  m_SavedProperties:
    serializedVersion: 3
    m_TexEnvs:
    - _BumpMap:
        m_Texture: {fileID: 0}
        m_Scale: {x: 1, y: 1}
        m_Offset: {x: 0, y: 0}
    - _DetailAlbedoMap:
        m_Texture: {fileID: 0}
        m_Scale: {x: 1, y: 1}
        m_Offset: {x: 0, y: 0}
    - _DetailMask:
        m_Texture: {fileID: 0}
        m_Scale: {x: 1, y: 1}
        m_Offset: {x: 0, y: 0}
    - _DetailNormalMap:
        m_Texture: {fileID: 0}
        m_Scale: {x: 1, y: 1}
        m_Offset: {x: 0, y: 0}
    - _DistortionTex:
        m_Texture: {fileID: 2800000, guid: e73892aa86f8b5344b2959dd030a0663, type: 3}
        m_Scale: {x: 2, y: 2}
        m_Offset: {x: 0, y: 0}
    - _EmissionMap:
        m_Texture: {fileID: 0}
        m_Scale: {x: 1, y: 1}
        m_Offset: {x: 0, y: 0}
    - _GradientTex:
        m_Texture: {fileID: 0}
        m_Scale: {x: 1, y: 1}
        m_Offset: {x: 0, y: 0}
    - _MainTex:
        m_Texture: {fileID: 2800000, guid: 69825df58cbe645a7a6fb4ddd70f8a6b, type: 3}
        m_Scale: {x: 1, y: 1}
        m_Offset: {x: -1.3, y: 0}
    - _MaskTex:
        m_Texture: {fileID: 2800000, guid: c1fd59457e8c44dd8883aa5b83b627a2, type: 3}
        m_Scale: {x: 1, y: 1}
        m_Offset: {x: 0, y: 0}
    - _MetallicGlossMap:
        m_Texture: {fileID: 0}
        m_Scale: {x: 1, y: 1}
        m_Offset: {x: 0, y: 0}
    - _OcclusionMap:
        m_Texture: {fileID: 0}
        m_Scale: {x: 1, y: 1}
        m_Offset: {x: 0, y: 0}
    - _ParallaxMap:
        m_Texture: {fileID: 0}
        m_Scale: {x: 1, y: 1}
        m_Offset: {x: 0, y: 0}
    m_Floats:
    - _BlendMode: 1
    - _BlendOpMode: 0
    - _BumpScale: 1
    - _CullMode: 0
    - _Cutoff: 0.5
    - _DepthTestMode: 4
    - _DetailNormalMapScale: 1
    - _DistortionValue: 0.5
    - _DstBlend: 0
    - _DstBlendMode: 1
    - _GlossMapScale: 1
    - _Glossiness: 0.5
    - _GlossyReflections: 1
    - _LerpValue: 0
    - _Metallic: 0
    - _Mode: 0
    - _OcclusionStrength: 1
    - _Parallax: 0.02
    - _ScrollSpeedX: 0
    - _ScrollSpeedY: 0
    - _SmoothnessTextureChannel: 0
    - _SpecularHighlights: 1
    - _SrcBlend: 1
    - _SrcBlendMode: 5
    - _UVSec: 0
    - _ZWrite: 1
    - _ZWriteMode: 0
    m_Colors:
    - _Color: {r: 1, g: 1, b: 1, a: 1}
    - _EmissionColor: {r: 0, g: 0, b: 0, a: 1}
    - _LerpColorBlack: {r: 0, g: 0.25517273, b: 1, a: 0}
    - _LerpColorWhite: {r: 0.8088235, g: 1, b: 0.9920893, a: 1}
    - _TintColor: {r: 0.5, g: 0.5, b: 0.5, a: 1}
